[
  {
    "_id": "621eea8617bd4208b8efc1ff",
    "name": "Sweater",
    "price": 10,
    "description": "Lorem ipsum dolor sit amet, consectetur adipiscing elit, sed do eiusmod tempor incididunt ut labore et dolore ",
    "quantity": 9,
    "imageURL": "http://res.cloudinary.com/gapstars/image/upload/v1646217076/raxrldyizyykla7f2byo.jpg"
  },
  {
    "_id": "621eeae917bd4208b8efc205",
    "name": "T-Shirt",
    "price": 150,
    "description": "Lorem ipsum dolor sit amet, consectetur adipiscing elit, sed do eiusmod tempor incididunt ut labore et dolore magna aliqua.",
    "quantity": 7,
    "imageURL": "http://res.cloudinary.com/gapstars/image/upload/v1646193382/wtg87ycbjsolai4nckfe.png"
  },
  {
    "_id": "621eeb1317bd4208b8efc208",
    "name": "Top",
    "price": 200,
    "description": "test",
    "quantity": 0,
    "imageURL": "http://res.cloudinary.com/gapstars/image/upload/v1646193424/qlbi3irpu5x5qaai5gi8.png"
  },
  {
    "_id": "621f02d517bd4208b8efc299",
    "name": "Top",
    "price": 100,
    "description": "ergrgw",
    "quantity": 5,
    "imageURL": "http://res.cloudinary.com/gapstars/image/upload/v1646199506/si9yh0g0xjrqr22abbis.png"
  },
  {
    "_id": "62205d0114d7e0eb2a28b4e3",
    "name": "Jeans",
    "price": 100,
    "description": "test edit",
    "quantity": 9,
    "imageURL": "http://res.cloudinary.com/gapstars/image/upload/v1646288154/cctkfy7egezmhnbwqyuh.png"
  },
  {
    "_id": "6221d58b66d79d168ea09145",
    "name": "Skirt",
    "price": 400,
    "description": "lorem ipsum",
    "quantity": 4,
    "imageURL": "http://res.cloudinary.com/gapstars/image/upload/v1646384521/fxmnvzr3p3wfkmpgbj7h.jpg"
  },
  {
    "_id": "6225dd6823c705d8623342a5",
    "name": "Short Skirt",
    "price": 200,
    "description": "wewfh owefoi kjwelkfj fwei fiu wpoeuwpifeu efpiuwfi",
    "quantity": 9,
    "imageURL": "http://res.cloudinary.com/gapstars/image/upload/v1646648678/sdh2m2weullwbiv7qo9z.jpg"
  },
  {
    "_id": "622978e5c5f86f274f0a6898",
    "name": "Shirt",
    "price": 100,
    "description": "jrfjke menrfb fnrbf uhf erfr",
    "quantity": 11,
    "imageURL": "http://res.cloudinary.com/gapstars/image/upload/v1646885090/xidbeml1y6n0nisreagw.png"
  }
]
