[
    {
      "_id": "621efa5417bd4208b8efc254",
      "user": "621dad3c76fa5802e5e8afe3",
      "firstName": "Hashmaryne",
      "lastName": "van Cuylenburg",
      "contactNumber": "0770065700",
      "address": "1st lane, colombo"
    },
    {
      "_id": "621f005c17bd4208b8efc274"
      ,
      "user": "621f003817bd4208b8efc26e"
      ,
      "firstName": "Testing",
      "lastName": "Profile",
      "contactNumber": "07794345600",
      "address": "1st lane, colombo"
    },
    {
      "_id": "621f01ec17bd4208b8efc27f"
      ,
      "user": "621f01ce17bd4208b8efc279",
      "firstName": "Jane",
      "lastName": "Doe",
      "contactNumber": "0770065700",
      "address": " 88/15 1st Cross Street, 11, Colombo"
    },
    {
      "_id": "6220459c14d7e0eb2a28b49d",
      "user": "6220456e14d7e0eb2a28b497",
      "firstName": "Kate",
      "lastName": "Smith",
      "contactNumber": "0770065700",
      "address": " 88/15 1st Cross Street, 11, Colombo"
    },
    {
      "_id": "62205c6e14d7e0eb2a28b4c8",
      "user": "62205c4d14d7e0eb2a28b4c1",
      "firstName": "John",
      "lastName": "Doe",
      "contactNumber": "07794345600",
      "address": " 88/15 1st Cross Street, 11, Colombo"
    },
    {
      "_id": "622ae210450ea4c3b06fefa3",
      "user": "622ae1c0450ea4c3b06fef92",
      "firstName": "Annie",
      "lastName": "Doe",
      "contactNumber": "0770065700",
      "address": "1st lane, colombo"
    },
    {
      "_id": "623155b257bf65ef39a340eb",
      "user": "62315210b583a7853e6a2be0",
      "firstName": "Testing",
      "lastName": "Profile",
      "contactNumber": "07794345600",
      "address": "1st lane, colombo"
    },
    {
      "_id": "62315b9f8081e5f97c2d77c7",
      "user": "62315210b583a7853e6a2be0",
      "firstName": "Testing",
      "lastName": "Profile",
      "contactNumber": "07794345600",
      "address": "1st lane, colombo"
    },
    {
      "_id":"62315be9e4b84684d2d149b9",
      "user": "62315210b583a7853e6a2be0",
      "firstName": "Testing",
      "lastName": "Profile",
      "contactNumber": "07794345600",
      "address": "1st lane, colombo"
    },
    {
      "_id": "623406eccfab49b197114ef8",
      "user": "62340269883d517ea72ea5f5",
      "firstName": "Rachel",
      "lastName": "Smith",
      "contactNumber": "0779434560",
      "address": " 88/15 1st Cross Street, 11, Colombo"
    }
  ]
  